{
  "author_name": "George",
  "author_uri": "https://commons.wikimedia.org/wiki/User:Protious",
  "licence": "CC-BY-SA-3.0",
  "source_name": "Wikipedia",
  "source_uri": "https://en.wikipedia.org/wiki/File:Conways_game_of_life_breeder_animation.gif"
}
